(kicad_symbol_lib (version 20211014) (generator kicad_symbol_editor)
  (symbol "DRV5032DU" (in_bom yes) (on_board yes)
    (property "Reference" "U" (id 0) (at -13.97 -1.27 0)
      (effects (font (size 1.27 1.27)))
    )
    (property "Value" "DRV5032DU" (id 1) (at -13.97 1.27 0)
      (effects (font (size 1.27 1.27)))
    )
    (property "Footprint" "Package_TO_SOT_SMD:SOT-23" (id 2) (at 16.51 -12.7 0)
      (effects (font (size 1.27 1.27)))
    )
    (property "Datasheet" "https://www.ti.com/lit/ds/symlink/drv5032.pdf" (id 3) (at 25.4 -10.16 0)
      (effects (font (size 1.27 1.27)) hide)
    )
    (symbol "DRV5032DU_0_1"
      (rectangle (start -7.62 7.62) (end 7.62 -7.62)
        (stroke (width 0) (type default) (color 0 0 0 0))
        (fill (type background))
      )
    )
    (symbol "DRV5032DU_1_1"
      (pin power_in line (at 0 12.7 270) (length 5.08)
        (name "Vcc" (effects (font (size 1.27 1.27))))
        (number "1" (effects (font (size 1.27 1.27))))
      )
      (pin output line (at 12.7 0 180) (length 5.08)
        (name "Out" (effects (font (size 1.27 1.27))))
        (number "2" (effects (font (size 1.27 1.27))))
      )
      (pin power_in line (at 0 -12.7 90) (length 5.08)
        (name "GND" (effects (font (size 1.27 1.27))))
        (number "3" (effects (font (size 1.27 1.27))))
      )
    )
  )
)
